<svg width="33" height="32" viewBox="0 0 33 32" fill="none" xmlns="http://www.w3.org/2000/svg">
<path d="M32.2464 10.4683C31.7551 10.1291 30.8017 9.66709 28.9696 9.25035C28.4217 9.12562 27.7934 9.00595 27.0771 8.89877C26.1749 8.75834 25.1281 8.63361 23.919 8.5298L23.7491 8.51546C23.5044 7.95829 23.2503 7.38897 22.982 6.78944C22.8395 6.46791 22.7025 6.14468 22.5582 5.80187C22.5417 5.76136 22.5233 5.71917 22.5051 5.67866C21.9773 4.41867 21.4092 3.12475 20.4519 1.97548C19.3815 0.70114 17.9751 0 16.4938 0C15.0122 0 13.6075 0.702828 12.5354 1.97548C11.571 3.12306 11.0121 4.41664 10.4843 5.67511L10.4293 5.80187C10.2871 6.14468 10.1499 6.46791 10.0058 6.78944C9.73703 7.38897 9.48506 7.95829 9.23857 8.51546L9.07041 8.5298C7.85757 8.63344 6.81077 8.75834 5.90685 8.90063C5.19071 9.0095 4.56599 9.13068 4.01978 9.25221C2.19319 9.66861 1.23233 10.1309 0.74271 10.4702C0.656243 10.5306 0.588695 10.6128 0.546964 10.7073C0.505228 10.8021 0.490936 10.9059 0.505586 11.0078L0.664551 12.1449C0.905561 13.8464 1.16302 15.8447 1.58687 17.9047C1.89931 19.4905 2.33695 21.0512 2.8966 22.5729C3.12116 23.172 3.37137 23.7609 3.65111 24.3304C4.84644 26.6496 6.69566 28.5987 8.98748 29.9546C11.2791 31.3108 13.9212 32.0195 16.6112 31.9996C19.3018 31.9798 21.932 31.2325 24.2019 29.8427C26.4716 28.4529 28.2899 26.4771 29.4481 24.1405C29.6638 23.6835 29.8628 23.2159 30.0456 22.7344C31.3497 19.3597 31.852 15.6354 32.2667 12.6776L32.4967 10.9921C32.5078 10.8912 32.4904 10.7893 32.4463 10.697C32.4026 10.6049 32.3335 10.5259 32.2465 10.4682L32.2464 10.4683ZM16.4825 8.25029C14.9958 8.25029 13.6424 8.27662 12.4129 8.32388C12.4785 8.17468 12.5462 8.02513 12.6155 7.87069C12.7708 7.51911 12.9206 7.16753 13.065 6.81594C13.3655 6.05016 13.7173 5.30378 14.1191 4.58205C14.3014 4.26874 14.5103 3.97018 14.7436 3.68934C15.0432 3.33776 15.6698 2.73131 16.4823 2.73131C17.2954 2.73131 17.9219 3.33084 18.2233 3.68934C18.4564 3.97003 18.6654 4.26878 18.8479 4.58205C19.2486 5.30412 19.6006 6.0505 19.9019 6.81594C20.0462 7.16753 20.1942 7.51911 20.3511 7.87069C20.4207 8.02513 20.4865 8.17468 20.5541 8.32388C19.3244 8.27662 17.971 8.25029 16.4822 8.25029H16.4825Z" fill="url(#paint0_linear_31_7902)"/>
<defs>
<linearGradient id="paint0_linear_31_7902" x1="16.5005" y1="0.000168787" x2="16.5005" y2="31.9809" gradientUnits="userSpaceOnUse">
<stop stop-color="#97D700"/>
<stop offset="0.631" stop-color="#50BC25"/>
<stop offset="1" stop-color="#009F64"/>
</linearGradient>
</defs>
</svg>
