<svg width="24" height="24" viewBox="0 0 24 24" fill="none" xmlns="http://www.w3.org/2000/svg">
<path d="M6.5 20.0002C4.98333 20.0002 3.68733 19.4752 2.612 18.4252C1.53667 17.3752 0.999334 16.0919 1 14.5752C1 13.2752 1.39167 12.1169 2.175 11.1002C2.95833 10.0835 3.98333 9.43353 5.25 9.1502C5.63333 7.8002 6.346 6.66686 7.388 5.7502C8.43 4.83353 9.634 4.2752 11 4.0752V12.1502L9.4 10.6002L8 12.0002L12 16.0002L16 12.0002L14.6 10.6002L13 12.1502V4.0752C14.7167 4.30853 16.146 5.07953 17.288 6.3882C18.43 7.69686 19.0007 9.2342 19 11.0002C20.15 11.1335 21.1043 11.6295 21.863 12.4882C22.6217 13.3469 23.0007 14.3509 23 15.5002C23 16.7502 22.5623 17.8129 21.687 18.6882C20.8117 19.5635 19.7493 20.0009 18.5 20.0002H6.5Z" fill="#1D1A22"/>
</svg>
