<svg width="32" height="32" viewBox="0 0 32 32" fill="none" xmlns="http://www.w3.org/2000/svg">
<path d="M29.3327 15.9998C29.3327 8.63984 23.3593 2.6665 15.9993 2.6665C8.63935 2.6665 2.66602 8.63984 2.66602 15.9998C2.66602 22.4532 7.25268 27.8265 13.3327 29.0665V19.9998H10.666V15.9998H13.3327V12.6665C13.3327 10.0932 15.426 7.99984 17.9993 7.99984H21.3327V11.9998H18.666C17.9327 11.9998 17.3327 12.5998 17.3327 13.3332V15.9998H21.3327V19.9998H17.3327V29.2665C24.066 28.5998 29.3327 22.9198 29.3327 15.9998Z" fill="#D9D9D9"/>
</svg>
