<svg width="12" height="12" viewBox="0 0 12 12" fill="none" xmlns="http://www.w3.org/2000/svg">
<rect x="0.707107" y="6" width="7" height="7" transform="rotate(-45 0.707107 6)" stroke="#EC407A"/>
</svg>
