<svg width="30" height="25" viewBox="0 0 30 25" fill="none" xmlns="http://www.w3.org/2000/svg">
<path d="M2.59518 10.7776C2.59518 10.7776 15.1569 5.48682 19.5135 3.62381C21.1836 2.87866 26.8472 0.494005 26.8472 0.494005C26.8472 0.494005 29.4612 -0.549193 29.2433 1.98439C29.1707 3.02769 28.5898 6.67904 28.009 10.6286C27.1376 16.2175 26.1937 22.3279 26.1937 22.3279C26.1937 22.3279 26.0484 24.0419 24.8141 24.34C23.5797 24.638 21.5465 23.2968 21.1836 22.9986C20.893 22.7751 15.7377 19.4217 13.8498 17.7823C13.3416 17.3352 12.7607 16.4411 13.9224 15.3978C16.5364 12.9386 19.6587 9.88341 21.5465 7.94594C22.4179 7.05167 23.2892 4.96516 19.6587 7.49875C14.5034 11.1502 9.4206 14.5781 9.4206 14.5781C9.4206 14.5781 8.25879 15.3232 6.0805 14.6525C3.9021 13.9819 1.36072 13.0877 1.36072 13.0877C1.36072 13.0877 -0.381837 11.9699 2.59518 10.7776Z" fill="#938F94"/>
</svg>
